<?xml version="1.0" encoding="utf-8"?>
<!-- Generator: Adobe Illustrator 13.0.0, SVG Export Plug-In . SVG Version: 6.00 Build 14948)  -->
<!DOCTYPE svg PUBLIC "-//W3C//DTD SVG 1.1//EN" "http://www.w3.org/Graphics/SVG/1.1/DTD/svg11.dtd">
<svg version="1.1" id="Layer_1" xmlns="http://www.w3.org/2000/svg" xmlns:xlink="http://www.w3.org/1999/xlink" x="0px" y="0px"
	 width="250px" height="250px" viewBox="0 0 250 250" enable-background="new 0 0 250 250" xml:space="preserve">
<path fill="#6C6D73" d="M117.188,15.625c-56.002,0-101.563,45.56-101.563,101.563c0,56.002,45.56,101.563,101.563,101.563
	c21.551,0,41.488-6.852,57.922-18.342c2.722-1.902,5.326-3.92,7.844-6.072c0.011-0.01,0.02-0.021,0.03-0.031
	c0.011-0.009,0.02-0.021,0.03-0.029c2.305-1.975,4.504-4.059,6.623-6.227c0.303-0.309,0.615-0.604,0.915-0.915
	c0.719-0.754,1.502-1.452,2.197-2.228c0.388-0.439,0.726-0.92,1.007-1.435c3.201-3.673,6.248-7.499,8.881-11.597H186.92h-3.51
	c-1.757,2.129-3.73,4.084-5.707,6.043c-0.904,0.904-1.771,1.852-2.715,2.715c-0.043,0.039-0.08,0.084-0.123,0.123
	c-2.451,2.216-5.055,4.275-7.721,6.195c-14.064,10.15-31.243,16.174-49.957,16.174c-47.56,0-85.938-38.377-85.938-85.938
	c0-47.56,38.377-85.938,85.938-85.938c18.685,0,35.863,5.991,49.927,16.113c2.81,2.016,5.5,4.199,8.057,6.531
	c0.646,0.593,1.233,1.249,1.862,1.861c2.226,2.159,4.407,4.357,6.377,6.745h2.412c0.818,0.131,1.652,0.131,2.471,0h14.344
	c-2.66-4.141-5.708-7.987-8.911-11.688c-0.276-0.481-0.604-0.931-0.977-1.343c-0.452-0.504-0.973-0.94-1.435-1.435
	c-1.148-1.235-2.362-2.394-3.57-3.57c-1.133-1.1-2.236-2.219-3.418-3.266c-1.353-1.199-2.764-2.321-4.182-3.448
	c-1.293-1.029-2.562-2.086-3.906-3.052c-0.313-0.225-0.6-0.481-0.914-0.702l-0.063,0.061
	C158.799,22.505,138.804,15.625,117.188,15.625z M187.5,78.125v31.25H78.125V125H187.5v31.25l39.063-39.063L187.5,78.125z"/>
</svg>
