<?xml version="1.0" encoding="utf-8"?>
<!-- Generator: Adobe Illustrator 13.0.0, SVG Export Plug-In . SVG Version: 6.00 Build 14948)  -->
<!DOCTYPE svg PUBLIC "-//W3C//DTD SVG 1.1//EN" "http://www.w3.org/Graphics/SVG/1.1/DTD/svg11.dtd">
<svg version="1.1" id="Layer_2" xmlns="http://www.w3.org/2000/svg" xmlns:xlink="http://www.w3.org/1999/xlink" x="0px" y="0px"
	 width="200px" height="200px" viewBox="0 0 200 200" enable-background="new 0 0 200 200" xml:space="preserve">
<path fill="#2CA01C" d="M77.58,99.66v3.22c0,14.011-5.96,21.63-17.14,21.63H53.7V78.17h6.83C71.62,78.17,77.58,85.6,77.58,99.66z"/>
<path fill="#2CA01C" d="M113.189,11.67l-95,17.4c-2.76,0-5,2.24-5,5V165.73c0,2.76,2.24,5,5,5l95,15.77c2.761,0,5-2.24,5-5V16.67
	C118.189,13.91,115.95,11.67,113.189,11.67z M93.15,102.88c0,20.261-13.43,33.99-32.71,33.99H38.37v-71.1h22.16
	c19.19,0,32.62,13.77,32.62,33.99V102.88z"/>
<path fill="#2CA01C" d="M187.4,39.94v119.69c0,5.521-4.471,10-10,10h-50.94v-25.22h44.05v-9.521h-44.05V118.07h44.22v-9.551h-44.22
	V91.11h44.05V81.6h-44.05V65.28h44.05v-9.51h-44.05V29.94h50.94C182.93,29.94,187.4,34.42,187.4,39.94z"/>
<line fill="none" x1="126.46" y1="65.28" x2="126.46" y2="55.77"/>
<line fill="none" x1="126.46" y1="91.11" x2="126.46" y2="81.6"/>
<text transform="matrix(1 0 1 3.051851e-005 8212.9063 -8090.751)" font-family="'Heebo-Bold'" font-size="100">S</text>
<polygon fill="#2CA01C" points="28.84,69.962 43.3,53.468 107.244,57.535 102.272,119.671 78.774,156.952 29.744,153.111 "/>
<g>
	<path fill="#FFFFFF" d="M97.415,90.002c0,13.722-10.073,22.579-26.861,22.579H58v24.622H42.72v-70.85h27.833
		C87.342,66.354,97.415,76.329,97.415,90.002z M81.989,90.1c0-5.985-3.358-11.387-11.436-11.387H58v21.508h12.554
		C78.631,100.221,81.989,95.988,81.989,90.1z"/>
</g>
</svg>
