<?xml version="1.0" encoding="utf-8"?>
<!-- Generator: Adobe Illustrator 16.0.0, SVG Export Plug-In . SVG Version: 6.00 Build 0)  -->
<!DOCTYPE svg PUBLIC "-//W3C//DTD SVG 1.1//EN" "http://www.w3.org/Graphics/SVG/1.1/DTD/svg11.dtd">
<svg version="1.1" xmlns="http://www.w3.org/2000/svg" xmlns:xlink="http://www.w3.org/1999/xlink" x="0px" y="0px" width="200px"
	 height="200px" viewBox="0 0 200 200" enable-background="new 0 0 200 200" xml:space="preserve">
<g id="Layer_2">
	<path fill="#2CA01C" d="M180.188,105.908c0,4.418-3.582,8-8,8H28.243c-4.418,0-8-3.582-8-8V79.574c0-4.418,3.582-8,8-8h143.945
		c4.418,0,8,3.582,8,8V105.908z"/>
</g>
<g id="Layer_3">
	<path fill="#FFFFFF" stroke="#2CA01C" stroke-width="3" stroke-miterlimit="10" d="M157.025,47.318v44.453c0,1.104-0.896,2-2,2
		H44.668c-1.104,0-2-0.896-2-2V34.444c0-1.104,0.896-2,2-2h98.458L157.025,47.318z"/>
	
		<line fill="none" stroke="#2CA01C" stroke-width="3" stroke-linecap="round" stroke-miterlimit="10" x1="55.75" y1="50.25" x2="145.5" y2="50.25"/>
	
		<line fill="none" stroke="#2CA01C" stroke-width="3" stroke-linecap="round" stroke-miterlimit="10" x1="55.75" y1="61.25" x2="145.5" y2="61.25"/>
	
		<line fill="none" stroke="#2CA01C" stroke-width="3" stroke-linecap="round" stroke-miterlimit="10" x1="55.75" y1="72.25" x2="145.5" y2="72.25"/>
	
		<line fill="none" stroke="#2CA01C" stroke-width="3" stroke-linecap="round" stroke-miterlimit="10" x1="55.75" y1="83.25" x2="145.5" y2="83.25"/>
	<path fill="none" stroke="#2CA01C" stroke-width="3" stroke-linecap="round" stroke-miterlimit="10" d="M54,169.25H42
		c0,0,3.543-9.521,4.407-13.01C48.974,145.868,48,113.75,48,113.75h12c0,0-0.493,31.805-2.564,42.216
		C56.73,159.513,54,169.25,54,169.25z"/>
	<path fill="none" stroke="#2CA01C" stroke-width="3" stroke-linecap="round" stroke-miterlimit="10" d="M147.281,169.25h12
		c0,0-3.543-9.521-4.406-13.01c-2.566-10.372-1.594-42.49-1.594-42.49h-12c0,0,0.492,31.805,2.564,42.216
		C144.551,159.513,147.281,169.25,147.281,169.25z"/>
	<path fill="none" stroke="#2CA01C" stroke-width="3" stroke-linecap="round" stroke-miterlimit="10" d="M72.872,169.25h-12
		c0,0,2.543-9.521,3.406-13.01C66.845,145.868,66,113.75,66,113.75h12c0,0-0.62,31.805-2.692,42.216
		C74.603,159.513,72.872,169.25,72.872,169.25z"/>
	<path fill="none" stroke="#2CA01C" stroke-width="3" stroke-linecap="round" stroke-miterlimit="10" d="M128,169.25h12
		c0,0-2.543-9.521-3.406-13.01c-2.566-10.372-1.722-42.49-1.722-42.49h-12c0,0,0.62,31.805,2.692,42.216
		C126.27,159.513,128,169.25,128,169.25z"/>
	<polygon fill="none" stroke="#2CA01C" stroke-width="3" stroke-linecap="round" stroke-miterlimit="10" points="95.469,169.25 
		84.136,169.25 85,113.75 96.333,113.75 	"/>
	<polygon fill="none" stroke="#2CA01C" stroke-width="3" stroke-linecap="round" stroke-miterlimit="10" points="106,169.25 
		117.333,169.25 116.469,113.75 105.135,113.75 	"/>
	<circle fill="#FFFFFF" cx="169.213" cy="78.066" r="2.503"/>
</g>
</svg>
