<?xml version="1.0" encoding="utf-8"?>
<!-- Generator: Adobe Illustrator 25.3.0, SVG Export Plug-In . SVG Version: 6.00 Build 0)  -->
<svg version="1.1" id="Layer_1" xmlns="http://www.w3.org/2000/svg" xmlns:xlink="http://www.w3.org/1999/xlink" x="0px" y="0px"
	 viewBox="0 0 100 100" style="enable-background:new 0 0 100 100;" xml:space="preserve">
<style type="text/css">
	.st0{display:none;}
	.st1{display:inline;fill:none;stroke:#6C6D73;stroke-width:2.9817;stroke-miterlimit:10;}
	.st2{display:inline;fill:none;stroke:#6C6D73;stroke-width:2.9817;stroke-linecap:round;stroke-miterlimit:10;}
	.st3{display:inline;fill:none;stroke:#6C6D73;stroke-width:2.9817;stroke-linecap:round;stroke-miterlimit:1;}
	
		.st4{display:inline;fill:none;stroke:#6C6D73;stroke-width:2.9817;stroke-linecap:round;stroke-linejoin:round;stroke-miterlimit:10;}
	.st5{fill:#6D6D6D;}
</style>
<g class="st0">
	<circle class="st1" cx="29.1" cy="49.9" r="8.5"/>
	<path class="st1" d="M51,44h39c1.6,0,2.9,1.3,2.9,2.9v11.3"/>
	<line class="st2" x1="76" y1="56.4" x2="83.2" y2="56.4"/>
	<line class="st2" x1="58.9" y1="56.4" x2="66.1" y2="56.4"/>
	<path class="st2" d="M92.9,56.4v4.2c0,2.5-1.9,4.6-4.4,4.6h-0.7c-2.5,0-4.6-2.1-4.6-4.6v-4.2"/>
	<path class="st2" d="M75.8,56.4v4.2c0,2.5-1.9,4.6-4.4,4.6h-0.7c-2.5,0-4.6-2.1-4.6-4.6v-4.2"/>
	<path class="st3" d="M39.4,30.4c10.7,5.7,14.9,19,9.2,29.7c-4.3,8.1-12.8,12.4-21.4,11.6"/>
	<path class="st2" d="M31,28c-8.6-0.8-17.1,3.6-21.4,11.6C4,50.4,8.1,63.7,18.8,69.4"/>
	<polyline class="st4" points="27.8,33 31.9,28.1 27,23.9 	"/>
	<polyline class="st4" points="31.2,67 27,71.9 31.9,76.1 	"/>
</g>
<g>
	<path class="st5" d="M87,28.9c-1.6,3.2-3.2,6.5-4.7,9.7c-2.4,5-4.9,10.1-7.3,15.1c-0.5,1.1-1.3,1.5-2.2,1.2
		c-0.9-0.3-1.5-1.1-1.2-2.1c0.1-0.3,0.2-0.7,0.4-1c2.7-5.6,5.4-11.1,8.1-16.7c0.1-0.3,0.2-0.5,0.4-0.9c-0.4-0.2-0.9-0.4-1.3-0.7
		c-0.1,0.3-0.3,0.5-0.4,0.7C72.3,47.5,66,60.6,59.6,73.7c-0.5,0.9-1.1,1.7-1.9,2.3c-2.7,1.9-5.4,3.9-8,5.9c-0.9,0.7-1.9,1.1-3,1.2
		c-0.2,0-0.5,0.3-0.7,0.5c-0.3,0.5-0.5,1-0.8,1.5c-0.5,0.9-1.5,1.2-2.3,0.7c-0.9-0.5-1.2-1.4-0.8-2.3c0-0.1,0.1-0.2,0.1-0.3
		c0.6-1,1-1.9,0.1-3C42,79.7,42,79,42,78.4c-0.2-3.5-0.3-7-0.4-10.5c0-0.8,0.2-1.6,0.5-2.3C49.7,49.9,57.3,34.2,65,18.4
		c1.8-3.8,6.3-5.6,10.7-4.5c4.2,1.1,7.2,4.5,7.6,8.9c0.1,1.5-0.3,3-0.9,4.3c-0.5,1.1-1.1,2.2-1.6,3.4c0.5,0.2,0.9,0.4,1.4,0.7
		c0.6-1.2,1.1-2.3,1.7-3.4c0.4-0.8,1.2-1.2,2-1c0.7,0.2,1,0.7,1.4,1.3C87,28.3,87,28.6,87,28.9z M60.9,34.8
		c-0.1,0.1-0.1,0.2-0.2,0.3c-5,10.4-10.1,20.8-15.2,31.2c-0.2,0.4-0.1,0.6,0.2,0.9c2.8,2.6,6,4.3,9.8,4.9c0.7,0.1,1-0.1,1.3-0.7
		c4.9-10.2,9.9-20.3,14.8-30.5c0.1-0.2,0.2-0.5,0.3-0.7C68.3,38.3,64.6,36.6,60.9,34.8z M73.5,37c0.1-0.3,0.2-0.5,0.4-0.7
		c1.7-3.5,3.4-7,5.1-10.5c0.9-1.9,0.9-3.6-0.1-5.4c-1.3-2.3-3.4-3.3-5.9-3.3c-2.4,0-4.1,1.3-5.1,3.4c-1.6,3.3-3.2,6.6-4.8,9.9
		c-0.2,0.4-0.4,0.8-0.6,1.2C66.2,33.4,69.8,35.2,73.5,37z M53,75.1c-2.9-0.8-5.4-2-7.9-3.8c0.1,2.6,0.2,5,0.3,7.3
		c0.1,0.8,1,1.2,1.8,0.7C49.2,78,51,76.6,53,75.1z"/>
	<path class="st5" d="M33.7,86.3c-2.4,0-4.7-0.1-7-0.7c-2.3-0.7-4.2-1.8-5-4.1c-0.6-1.6-0.3-3.2,0-4.8c0.8-3.6,2.6-6.7,4.3-10
		c1.9-3.7,4-7.4,5.8-11.2c0.8-1.6,1.2-3.4,1.5-5.2c0.6-3.6-1.1-6-4.1-7.8c-2.6-1.5-5.6-2.2-8.5-2.7c-2-0.3-3.9-0.7-5.9-1
		c-1-0.2-1.7-1-1.6-2c0.1-0.9,0.9-1.7,1.9-1.5c4.9,0.9,9.8,1.3,14.4,3.4c2.9,1.3,5.3,3.2,6.7,6.3c1.2,2.7,1,5.4,0.3,8.1
		c-0.7,2.9-2.1,5.6-3.5,8.2c-2.1,4-4.3,8-6.3,12.1c-0.9,1.7-1.5,3.6-1.7,5.5c-0.2,1.5,0.3,2.4,1.6,2.9c2,0.9,4.2,0.9,6.3,1
		c1.2,0,2.4,0,3.6,0c1.1,0,1.8,0.7,1.9,1.7c0,1-0.7,1.8-1.9,1.8C35.5,86.3,34.6,86.3,33.7,86.3z"/>
</g>
</svg>
